…
Tibble 和 Data.frame 一般可以通用，但是 Tibble 中含有的分组信息，如果不注意，有时可能会引起错误。


## ggpubr使用grouped tibble时自动添加group的小坑


```{r}
> error_rate_summary
# A tibble: 81 x 8
# Groups:   enzyme, nps [27]
   id    enzyme    nps   rep   type  Error_Rate     mean       std
   <fct> <fct>     <fct> <fct> <chr>      <dbl>    <dbl>     <dbl>
 1 NP1   rtaq      Fe2O3 rep1  B       0.00141  0.00125  0.000139 
 2 NP10  extaq     Fe2O3 rep1  B       0.00137  0.00138  0.000107 
 3 NP100 primestar Fe2O3 rep3  Y       0.000908 0.000810 0.0000899
 4 NP101 primestar ZnO   rep3  Y       0.000919 0.000816 0.0000904
 5 NP102 primestar CeO2  rep3  Y       0.000930 0.000785 0.000126 
 6 NP103 primestar Fe3O4 rep3  Y       0.000934 0.000800 0.000117 
 7 NP104 primestar Al2O3 rep3  Y       0.000866 0.000817 0.0000839
 8 NP105 primestar CuO   rep3  Y       0.000892 0.000795 0.0000920
 9 NP106 primestar TiO2  rep3  Y       0.000879 0.000796 0.0000832
10 NP107 primestar CK    rep3  Y       0.000884 0.000786 0.0000915
# ... with 71 more rows
```
…
